[0] Config.pm:354> INFO - This is Biber 2.7
[0] Config.pm:357> INFO - Logfile is 'poster-surf.blg'
[46] biber-darwin:303> INFO - === Tue Jul 16, 2019, 06:56:13
[69] Biber.pm:359> INFO - Reading 'poster-surf.bcf'
[163] Biber.pm:835> INFO - Found 5 citekeys in bib section 0
[178] Biber.pm:3670> INFO - Processing section 0
[199] Biber.pm:3840> INFO - Looking for bibtex format file 'posterbib.bib' for section 0
[202] bibtex.pm:1435> INFO - Decoding LaTeX character macros into UTF-8
[209] bibtex.pm:1292> INFO - Found BibTeX data source 'posterbib.bib'
[246] UCollate.pm:68> INFO - Overriding locale 'en-US' defaults 'normalization = NFD' with 'normalization = prenormalized'
[246] UCollate.pm:68> INFO - Overriding locale 'en-US' defaults 'variable = shifted' with 'variable = non-ignorable'
[246] Biber.pm:3499> INFO - Sorting list 'none/global/' of type 'entry' with scheme 'none' and locale 'en-US'
[247] Biber.pm:3505> INFO - No sort tailoring available for locale 'en-US'
[251] bbl.pm:608> INFO - Writing 'poster-surf.bbl' with encoding 'latin1'
[255] Utils.pm:164> WARN - The entry 'MuTePaper' has characters which cannot be encoded in 'latin1'. Recoding problematic characters into macros.
[257] bbl.pm:712> INFO - Output to poster-surf.bbl
[258] Biber.pm:109> INFO - WARNINGS: 1
