\relax 
\providecommand\hyper@newdestlabel[2]{}
\providecommand\HyperFirstAtBeginDocument{\AtBeginDocument}
\HyperFirstAtBeginDocument{\ifx\hyper@anchor\@undefined
\global\let\oldcontentsline\contentsline
\gdef\contentsline#1#2#3#4{\oldcontentsline{#1}{#2}{#3}}
\global\let\oldnewlabel\newlabel
\gdef\newlabel#1#2{\newlabelxx{#1}#2}
\gdef\newlabelxx#1#2#3#4#5#6{\oldnewlabel{#1}{{#2}{#3}}}
\AtEndDocument{\ifx\hyper@anchor\@undefined
\let\contentsline\oldcontentsline
\let\newlabel\oldnewlabel
\fi}
\fi}
\global\let\hyper@last\relax 
\gdef\HyperFirstAtBeginDocument#1{#1}
\providecommand\HyField@AuxAddToFields[1]{}
\providecommand\HyField@AuxAddToCoFields[2]{}
\abx@aux@sortscheme{none}
\abx@aux@refcontext{none/global/}
\abx@aux@cite{MuTePaper}
\abx@aux@segm{0}{0}{MuTePaper}
\abx@aux@cite{CORSIKAref}
\abx@aux@segm{0}{0}{CORSIKAref}
\abx@aux@cite{MUSICref}
\abx@aux@segm{0}{0}{MUSICref}
\abx@aux@cite{MuTeSite}
\abx@aux@segm{0}{0}{MuTeSite}
\abx@aux@segm{0}{0}{MuTeSite}
\abx@aux@segm{0}{0}{CORSIKAref}
\abx@aux@cite{QGSJETII}
\abx@aux@segm{0}{0}{QGSJETII}
\abx@aux@segm{0}{0}{MUSICref}
\@writefile{toc}{\boolfalse {citerequest}\boolfalse {citetracker}\boolfalse {pagetracker}\boolfalse {backtracker}\relax }
\@writefile{lof}{\boolfalse {citerequest}\boolfalse {citetracker}\boolfalse {pagetracker}\boolfalse {backtracker}\relax }
\@writefile{lot}{\boolfalse {citerequest}\boolfalse {citetracker}\boolfalse {pagetracker}\boolfalse {backtracker}\relax }
\select@language{english}
\@writefile{toc}{\defcounter {refsection}{0}\relax }\@writefile{toc}{\select@language{english}}
\@writefile{lof}{\defcounter {refsection}{0}\relax }\@writefile{lof}{\select@language{english}}
\@writefile{lot}{\defcounter {refsection}{0}\relax }\@writefile{lot}{\select@language{english}}
\newlabel{fig:2DcontourMap}{{1}{1}{}{Doc-Start}{}}
\@writefile{snm}{\defcounter {refsection}{0}\relax }\@writefile{snm}{\beamer@slide {fig:2DcontourMap}{1}}
\newlabel{fig:detectorSchematic}{{1}{1}{}{Doc-Start}{}}
\@writefile{snm}{\defcounter {refsection}{0}\relax }\@writefile{snm}{\beamer@slide {fig:detectorSchematic}{1}}
\newlabel{fig:CoordSystem}{{1}{1}{}{Doc-Start}{}}
\@writefile{snm}{\defcounter {refsection}{0}\relax }\@writefile{snm}{\beamer@slide {fig:CoordSystem}{1}}
\newlabel{fig:MuonTrajectories}{{1}{1}{}{Doc-Start}{}}
\@writefile{snm}{\defcounter {refsection}{0}\relax }\@writefile{snm}{\beamer@slide {fig:MuonTrajectories}{1}}
\newlabel{fig:MuonAngleVDistance_RandomPhi}{{5}{1}{}{Doc-Start}{}}
\@writefile{snm}{\defcounter {refsection}{0}\relax }\@writefile{snm}{\beamer@slide {fig:MuonAngleVDistance_RandomPhi}{1}}
\newlabel{fig:NumberOfMuons100Days_lowDensity}{{6}{1}{}{Doc-Start}{}}
\@writefile{snm}{\defcounter {refsection}{0}\relax }\@writefile{snm}{\beamer@slide {fig:NumberOfMuons100Days_lowDensity}{1}}
\newlabel{fig:AlejandraFluxRatioComparison}{{7}{1}{}{Doc-Start}{}}
\@writefile{snm}{\defcounter {refsection}{0}\relax }\@writefile{snm}{\beamer@slide {fig:AlejandraFluxRatioComparison}{1}}
\newlabel{fig:NumberOfMuons100Days_lowDensity_noLog1000}{{8}{1}{}{Doc-Start}{}}
\@writefile{snm}{\defcounter {refsection}{0}\relax }\@writefile{snm}{\beamer@slide {fig:NumberOfMuons100Days_lowDensity_noLog1000}{1}}
\@writefile{nav}{\defcounter {refsection}{0}\relax }\@writefile{nav}{\headcommand {\sectionentry {1}{References}{1}{References}{0}}}
\@writefile{nav}{\defcounter {refsection}{0}\relax }\@writefile{nav}{\headcommand {\beamer@sectionpages {1}{0}}}
\@writefile{nav}{\defcounter {refsection}{0}\relax }\@writefile{nav}{\headcommand {\beamer@subsectionpages {1}{0}}}
\@writefile{nav}{\defcounter {refsection}{0}\relax }\@writefile{nav}{\headcommand {\slideentry {1}{0}{0}{1/1}{}{0}}}
\@writefile{nav}{\defcounter {refsection}{0}\relax }\@writefile{nav}{\headcommand {\beamer@framepages {1}{1}}}
\@writefile{nav}{\headcommand {\beamer@partpages {1}{1}}}
\@writefile{nav}{\headcommand {\beamer@subsectionpages {1}{1}}}
\@writefile{nav}{\headcommand {\beamer@sectionpages {1}{1}}}
\@writefile{nav}{\headcommand {\beamer@documentpages {1}}}
\@writefile{nav}{\headcommand {\def \inserttotalframenumber {1}}}
\abx@aux@refcontextdefaultsdone
\abx@aux@defaultrefcontext{0}{MuTePaper}{none/global/}
\abx@aux@defaultrefcontext{0}{CORSIKAref}{none/global/}
\abx@aux@defaultrefcontext{0}{MUSICref}{none/global/}
\abx@aux@defaultrefcontext{0}{MuTeSite}{none/global/}
\abx@aux@defaultrefcontext{0}{QGSJETII}{none/global/}
