PWD /Users/harry/MuonTomography/poster/muontomography
INPUT /usr/local/texlive/2017/texmf.cnf
INPUT /usr/local/texlive/2017/texmf-dist/web2c/texmf.cnf
INPUT /usr/local/texlive/2017/texmf-var/web2c/pdftex/pdflatex.fmt
INPUT poster-surf.tex
OUTPUT poster-surf.log
INPUT /usr/local/texlive/2017/texmf-dist/tex/latex/beamer/beamer.cls
INPUT /usr/local/texlive/2017/texmf-dist/tex/latex/beamer/beamer.cls
INPUT /usr/local/texlive/2017/texmf-dist/tex/latex/etoolbox/etoolbox.sty
INPUT /usr/local/texlive/2017/texmf-dist/tex/latex/etoolbox/etoolbox.sty
INPUT /usr/local/texlive/2017/texmf-dist/tex/latex/beamer/beamerbasemodes.sty
INPUT /usr/local/texlive/2017/texmf-dist/tex/latex/beamer/beamerbasemodes.sty
INPUT /usr/local/texlive/2017/texmf-dist/tex/latex/beamer/beamerbasedecode.sty
INPUT /usr/local/texlive/2017/texmf-dist/tex/latex/beamer/beamerbasedecode.sty
INPUT /usr/local/texlive/2017/texmf-dist/tex/generic/oberdiek/ifpdf.sty
INPUT /usr/local/texlive/2017/texmf-dist/tex/generic/oberdiek/ifpdf.sty
INPUT /usr/local/texlive/2017/texmf-dist/tex/latex/beamer/beamerbaseoptions.sty
INPUT /usr/local/texlive/2017/texmf-dist/tex/latex/beamer/beamerbaseoptions.sty
INPUT /usr/local/texlive/2017/texmf-dist/tex/latex/graphics/keyval.sty
INPUT /usr/local/texlive/2017/texmf-dist/tex/latex/graphics/keyval.sty
INPUT /usr/local/texlive/2017/texmf-dist/tex/latex/geometry/geometry.sty
INPUT /usr/local/texlive/2017/texmf-dist/tex/latex/geometry/geometry.sty
INPUT /usr/local/texlive/2017/texmf-dist/tex/generic/oberdiek/ifvtex.sty
INPUT /usr/local/texlive/2017/texmf-dist/tex/generic/oberdiek/ifvtex.sty
INPUT /usr/local/texlive/2017/texmf-dist/tex/generic/ifxetex/ifxetex.sty
INPUT /usr/local/texlive/2017/texmf-dist/tex/generic/ifxetex/ifxetex.sty
INPUT /usr/local/texlive/2017/texmf-dist/tex/latex/base/size11.clo
INPUT /usr/local/texlive/2017/texmf-dist/tex/latex/base/size11.clo
INPUT /usr/local/texlive/2017/texmf-dist/fonts/map/fontname/texfonts.map
INPUT /usr/local/texlive/2017/texmf-dist/fonts/tfm/public/cm/cmr10.tfm
INPUT /usr/local/texlive/2017/texmf-dist/tex/latex/pgf/basiclayer/pgfcore.sty
INPUT /usr/local/texlive/2017/texmf-dist/tex/latex/pgf/basiclayer/pgfcore.sty
INPUT /usr/local/texlive/2017/texmf-dist/tex/latex/graphics/graphicx.sty
INPUT /usr/local/texlive/2017/texmf-dist/tex/latex/graphics/graphicx.sty
INPUT /usr/local/texlive/2017/texmf-dist/tex/latex/graphics/graphics.sty
INPUT /usr/local/texlive/2017/texmf-dist/tex/latex/graphics/graphics.sty
INPUT /usr/local/texlive/2017/texmf-dist/tex/latex/graphics/trig.sty
INPUT /usr/local/texlive/2017/texmf-dist/tex/latex/graphics/trig.sty
INPUT /usr/local/texlive/2017/texmf-dist/tex/latex/graphics-cfg/graphics.cfg
INPUT /usr/local/texlive/2017/texmf-dist/tex/latex/graphics-cfg/graphics.cfg
INPUT /usr/local/texlive/2017/texmf-dist/tex/latex/graphics-def/pdftex.def
INPUT /usr/local/texlive/2017/texmf-dist/tex/latex/graphics-def/pdftex.def
INPUT /usr/local/texlive/2017/texmf-dist/tex/generic/oberdiek/infwarerr.sty
INPUT /usr/local/texlive/2017/texmf-dist/tex/generic/oberdiek/infwarerr.sty
INPUT /usr/local/texlive/2017/texmf-dist/tex/generic/oberdiek/ltxcmds.sty
INPUT /usr/local/texlive/2017/texmf-dist/tex/generic/oberdiek/ltxcmds.sty
INPUT /usr/local/texlive/2017/texmf-dist/tex/latex/pgf/systemlayer/pgfsys.sty
INPUT /usr/local/texlive/2017/texmf-dist/tex/latex/pgf/systemlayer/pgfsys.sty
INPUT /usr/local/texlive/2017/texmf-dist/tex/latex/pgf/utilities/pgfrcs.sty
INPUT /usr/local/texlive/2017/texmf-dist/tex/latex/pgf/utilities/pgfrcs.sty
INPUT /usr/local/texlive/2017/texmf-dist/tex/generic/pgf/utilities/pgfutil-common.tex
INPUT /usr/local/texlive/2017/texmf-dist/tex/generic/pgf/utilities/pgfutil-common-lists.tex
INPUT /usr/local/texlive/2017/texmf-dist/tex/generic/pgf/utilities/pgfutil-latex.def
INPUT /usr/local/texlive/2017/texmf-dist/tex/latex/ms/everyshi.sty
INPUT /usr/local/texlive/2017/texmf-dist/tex/latex/ms/everyshi.sty
INPUT /usr/local/texlive/2017/texmf-dist/tex/generic/pgf/utilities/pgfrcs.code.tex
INPUT /usr/local/texlive/2017/texmf-dist/tex/generic/pgf/utilities/pgfrcs.code.tex
INPUT /usr/local/texlive/2017/texmf-dist/tex/generic/pgf/systemlayer/pgfsys.code.tex
INPUT /usr/local/texlive/2017/texmf-dist/tex/generic/pgf/systemlayer/pgfsys.code.tex
INPUT /usr/local/texlive/2017/texmf-dist/tex/generic/pgf/utilities/pgfkeys.code.tex
INPUT /usr/local/texlive/2017/texmf-dist/tex/generic/pgf/utilities/pgfkeysfiltered.code.tex
INPUT /usr/local/texlive/2017/texmf-dist/tex/generic/pgf/systemlayer/pgf.cfg
INPUT /usr/local/texlive/2017/texmf-dist/tex/generic/pgf/systemlayer/pgfsys-pdftex.def
INPUT /usr/local/texlive/2017/texmf-dist/tex/generic/pgf/systemlayer/pgfsys-pdftex.def
INPUT /usr/local/texlive/2017/texmf-dist/tex/generic/pgf/systemlayer/pgfsys-common-pdf.def
INPUT /usr/local/texlive/2017/texmf-dist/tex/generic/pgf/systemlayer/pgfsyssoftpath.code.tex
INPUT /usr/local/texlive/2017/texmf-dist/tex/generic/pgf/systemlayer/pgfsyssoftpath.code.tex
INPUT /usr/local/texlive/2017/texmf-dist/tex/generic/pgf/systemlayer/pgfsysprotocol.code.tex
INPUT /usr/local/texlive/2017/texmf-dist/tex/generic/pgf/systemlayer/pgfsysprotocol.code.tex
INPUT /usr/local/texlive/2017/texmf-dist/tex/latex/xcolor/xcolor.sty
INPUT /usr/local/texlive/2017/texmf-dist/tex/latex/xcolor/xcolor.sty
INPUT /usr/local/texlive/2017/texmf-dist/tex/latex/graphics-cfg/color.cfg
INPUT /usr/local/texlive/2017/texmf-dist/tex/latex/graphics-cfg/color.cfg
INPUT /usr/local/texlive/2017/texmf-dist/tex/generic/pgf/basiclayer/pgfcore.code.tex
INPUT /usr/local/texlive/2017/texmf-dist/tex/generic/pgf/basiclayer/pgfcore.code.tex
INPUT /usr/local/texlive/2017/texmf-dist/tex/generic/pgf/math/pgfmath.code.tex
INPUT /usr/local/texlive/2017/texmf-dist/tex/generic/pgf/math/pgfmathcalc.code.tex
INPUT /usr/local/texlive/2017/texmf-dist/tex/generic/pgf/math/pgfmathutil.code.tex
INPUT /usr/local/texlive/2017/texmf-dist/tex/generic/pgf/math/pgfmathparser.code.tex
INPUT /usr/local/texlive/2017/texmf-dist/tex/generic/pgf/math/pgfmathfunctions.code.tex
INPUT /usr/local/texlive/2017/texmf-dist/tex/generic/pgf/math/pgfmathfunctions.basic.code.tex
INPUT /usr/local/texlive/2017/texmf-dist/tex/generic/pgf/math/pgfmathfunctions.trigonometric.code.tex
INPUT /usr/local/texlive/2017/texmf-dist/tex/generic/pgf/math/pgfmathfunctions.random.code.tex
INPUT /usr/local/texlive/2017/texmf-dist/tex/generic/pgf/math/pgfmathfunctions.comparison.code.tex
INPUT /usr/local/texlive/2017/texmf-dist/tex/generic/pgf/math/pgfmathfunctions.base.code.tex
INPUT /usr/local/texlive/2017/texmf-dist/tex/generic/pgf/math/pgfmathfunctions.round.code.tex
INPUT /usr/local/texlive/2017/texmf-dist/tex/generic/pgf/math/pgfmathfunctions.misc.code.tex
INPUT /usr/local/texlive/2017/texmf-dist/tex/generic/pgf/math/pgfmathfunctions.integerarithmetics.code.tex
INPUT /usr/local/texlive/2017/texmf-dist/tex/generic/pgf/math/pgfmathfloat.code.tex
INPUT /usr/local/texlive/2017/texmf-dist/tex/generic/pgf/basiclayer/pgfcorepoints.code.tex
INPUT /usr/local/texlive/2017/texmf-dist/tex/generic/pgf/basiclayer/pgfcorepathconstruct.code.tex
INPUT /usr/local/texlive/2017/texmf-dist/tex/generic/pgf/basiclayer/pgfcorepathusage.code.tex
INPUT /usr/local/texlive/2017/texmf-dist/tex/generic/pgf/basiclayer/pgfcorescopes.code.tex
INPUT /usr/local/texlive/2017/texmf-dist/tex/generic/pgf/basiclayer/pgfcoregraphicstate.code.tex
INPUT /usr/local/texlive/2017/texmf-dist/tex/generic/pgf/basiclayer/pgfcoretransformations.code.tex
INPUT /usr/local/texlive/2017/texmf-dist/tex/generic/pgf/basiclayer/pgfcorequick.code.tex
INPUT /usr/local/texlive/2017/texmf-dist/tex/generic/pgf/basiclayer/pgfcoreobjects.code.tex
INPUT /usr/local/texlive/2017/texmf-dist/tex/generic/pgf/basiclayer/pgfcorepathprocessing.code.tex
INPUT /usr/local/texlive/2017/texmf-dist/tex/generic/pgf/basiclayer/pgfcorearrows.code.tex
INPUT /usr/local/texlive/2017/texmf-dist/tex/generic/pgf/basiclayer/pgfcoreshade.code.tex
INPUT /usr/local/texlive/2017/texmf-dist/tex/generic/pgf/basiclayer/pgfcoreimage.code.tex
INPUT /usr/local/texlive/2017/texmf-dist/tex/generic/pgf/basiclayer/pgfcoreexternal.code.tex
INPUT /usr/local/texlive/2017/texmf-dist/tex/generic/pgf/basiclayer/pgfcorelayers.code.tex
INPUT /usr/local/texlive/2017/texmf-dist/tex/generic/pgf/basiclayer/pgfcoretransparency.code.tex
INPUT /usr/local/texlive/2017/texmf-dist/tex/generic/pgf/basiclayer/pgfcorepatterns.code.tex
INPUT /usr/local/texlive/2017/texmf-dist/tex/latex/pgf/utilities/xxcolor.sty
INPUT /usr/local/texlive/2017/texmf-dist/tex/latex/pgf/utilities/xxcolor.sty
INPUT /usr/local/texlive/2017/texmf-dist/tex/generic/oberdiek/atbegshi.sty
INPUT /usr/local/texlive/2017/texmf-dist/tex/generic/oberdiek/atbegshi.sty
INPUT /usr/local/texlive/2017/texmf-dist/tex/latex/hyperref/hyperref.sty
INPUT /usr/local/texlive/2017/texmf-dist/tex/latex/hyperref/hyperref.sty
INPUT /usr/local/texlive/2017/texmf-dist/tex/generic/oberdiek/hobsub-hyperref.sty
INPUT /usr/local/texlive/2017/texmf-dist/tex/generic/oberdiek/hobsub-hyperref.sty
INPUT /usr/local/texlive/2017/texmf-dist/tex/generic/oberdiek/hobsub-hyperref.sty
INPUT /usr/local/texlive/2017/texmf-dist/tex/generic/oberdiek/hobsub-generic.sty
INPUT /usr/local/texlive/2017/texmf-dist/tex/generic/oberdiek/hobsub-generic.sty
INPUT /usr/local/texlive/2017/texmf-dist/tex/latex/oberdiek/auxhook.sty
INPUT /usr/local/texlive/2017/texmf-dist/tex/latex/oberdiek/auxhook.sty
INPUT /usr/local/texlive/2017/texmf-dist/tex/latex/oberdiek/kvoptions.sty
INPUT /usr/local/texlive/2017/texmf-dist/tex/latex/oberdiek/kvoptions.sty
INPUT /usr/local/texlive/2017/texmf-dist/tex/latex/hyperref/pd1enc.def
INPUT /usr/local/texlive/2017/texmf-dist/tex/latex/hyperref/pd1enc.def
INPUT /usr/local/texlive/2017/texmf-dist/tex/latex/latexconfig/hyperref.cfg
INPUT /usr/local/texlive/2017/texmf-dist/tex/latex/latexconfig/hyperref.cfg
INPUT /usr/local/texlive/2017/texmf-dist/tex/latex/url/url.sty
INPUT /usr/local/texlive/2017/texmf-dist/tex/latex/url/url.sty
INPUT /usr/local/texlive/2017/texmf-dist/tex/latex/hyperref/hpdftex.def
INPUT /usr/local/texlive/2017/texmf-dist/tex/latex/hyperref/hpdftex.def
INPUT /usr/local/texlive/2017/texmf-dist/tex/latex/oberdiek/rerunfilecheck.sty
INPUT /usr/local/texlive/2017/texmf-dist/tex/latex/oberdiek/rerunfilecheck.sty
INPUT /usr/local/texlive/2017/texmf-dist/tex/latex/beamer/beamerbaserequires.sty
INPUT /usr/local/texlive/2017/texmf-dist/tex/latex/beamer/beamerbaserequires.sty
INPUT /usr/local/texlive/2017/texmf-dist/tex/latex/beamer/beamerbasecompatibility.sty
INPUT /usr/local/texlive/2017/texmf-dist/tex/latex/beamer/beamerbasecompatibility.sty
INPUT /usr/local/texlive/2017/texmf-dist/tex/latex/beamer/beamerbasefont.sty
INPUT /usr/local/texlive/2017/texmf-dist/tex/latex/beamer/beamerbasefont.sty
INPUT /usr/local/texlive/2017/texmf-dist/tex/latex/amsfonts/amssymb.sty
INPUT /usr/local/texlive/2017/texmf-dist/tex/latex/amsfonts/amssymb.sty
INPUT /usr/local/texlive/2017/texmf-dist/tex/latex/amsfonts/amsfonts.sty
INPUT /usr/local/texlive/2017/texmf-dist/tex/latex/amsfonts/amsfonts.sty
INPUT /usr/local/texlive/2017/texmf-dist/tex/latex/sansmathaccent/sansmathaccent.sty
INPUT /usr/local/texlive/2017/texmf-dist/tex/latex/sansmathaccent/sansmathaccent.sty
INPUT /usr/local/texlive/2017/texmf-dist/tex/latex/sansmathaccent/sansmathaccent.sty
INPUT /usr/local/texlive/2017/texmf-dist/tex/latex/filehook/filehook.sty
INPUT /usr/local/texlive/2017/texmf-dist/tex/latex/filehook/filehook.sty
INPUT /usr/local/texlive/2017/texmf-dist/tex/latex/filehook/filehook.sty
INPUT /usr/local/texlive/2017/texmf-dist/tex/latex/beamer/beamerbasetranslator.sty
INPUT /usr/local/texlive/2017/texmf-dist/tex/latex/beamer/beamerbasetranslator.sty
INPUT /usr/local/texlive/2017/texmf-dist/tex/latex/beamer/translator/translator.sty
INPUT /usr/local/texlive/2017/texmf-dist/tex/latex/beamer/translator/translator.sty
INPUT /usr/local/texlive/2017/texmf-dist/tex/latex/beamer/translator/translator-language-mappings.tex
INPUT /usr/local/texlive/2017/texmf-dist/tex/latex/beamer/translator/translator-language-mappings.tex
INPUT /usr/local/texlive/2017/texmf-dist/tex/latex/beamer/beamerbasemisc.sty
INPUT /usr/local/texlive/2017/texmf-dist/tex/latex/beamer/beamerbasemisc.sty
INPUT /usr/local/texlive/2017/texmf-dist/tex/latex/beamer/beamerbasetwoscreens.sty
INPUT /usr/local/texlive/2017/texmf-dist/tex/latex/beamer/beamerbasetwoscreens.sty
INPUT /usr/local/texlive/2017/texmf-dist/tex/latex/beamer/beamerbaseoverlay.sty
INPUT /usr/local/texlive/2017/texmf-dist/tex/latex/beamer/beamerbaseoverlay.sty
INPUT /usr/local/texlive/2017/texmf-dist/tex/latex/beamer/beamerbasetitle.sty
INPUT /usr/local/texlive/2017/texmf-dist/tex/latex/beamer/beamerbasetitle.sty
INPUT /usr/local/texlive/2017/texmf-dist/tex/latex/beamer/beamerbasesection.sty
INPUT /usr/local/texlive/2017/texmf-dist/tex/latex/beamer/beamerbasesection.sty
INPUT /usr/local/texlive/2017/texmf-dist/tex/latex/beamer/beamerbaseframe.sty
INPUT /usr/local/texlive/2017/texmf-dist/tex/latex/beamer/beamerbaseframe.sty
INPUT /usr/local/texlive/2017/texmf-dist/tex/latex/beamer/beamerbaseverbatim.sty
INPUT /usr/local/texlive/2017/texmf-dist/tex/latex/beamer/beamerbaseverbatim.sty
INPUT /usr/local/texlive/2017/texmf-dist/tex/latex/beamer/beamerbaseframesize.sty
INPUT /usr/local/texlive/2017/texmf-dist/tex/latex/beamer/beamerbaseframesize.sty
INPUT /usr/local/texlive/2017/texmf-dist/tex/latex/beamer/beamerbaseframecomponents.sty
INPUT /usr/local/texlive/2017/texmf-dist/tex/latex/beamer/beamerbaseframecomponents.sty
INPUT /usr/local/texlive/2017/texmf-dist/tex/latex/beamer/beamerbasecolor.sty
INPUT /usr/local/texlive/2017/texmf-dist/tex/latex/beamer/beamerbasecolor.sty
INPUT /usr/local/texlive/2017/texmf-dist/tex/latex/beamer/beamerbasenotes.sty
INPUT /usr/local/texlive/2017/texmf-dist/tex/latex/beamer/beamerbasenotes.sty
INPUT /usr/local/texlive/2017/texmf-dist/tex/latex/beamer/beamerbasetoc.sty
INPUT /usr/local/texlive/2017/texmf-dist/tex/latex/beamer/beamerbasetoc.sty
INPUT /usr/local/texlive/2017/texmf-dist/tex/latex/beamer/beamerbasetemplates.sty
INPUT /usr/local/texlive/2017/texmf-dist/tex/latex/beamer/beamerbasetemplates.sty
INPUT /usr/local/texlive/2017/texmf-dist/tex/latex/beamer/beamerbaseauxtemplates.sty
INPUT /usr/local/texlive/2017/texmf-dist/tex/latex/beamer/beamerbaseauxtemplates.sty
INPUT /usr/local/texlive/2017/texmf-dist/tex/latex/beamer/beamerbaseboxes.sty
INPUT /usr/local/texlive/2017/texmf-dist/tex/latex/beamer/beamerbaseboxes.sty
INPUT /usr/local/texlive/2017/texmf-dist/tex/latex/beamer/beamerbaselocalstructure.sty
INPUT /usr/local/texlive/2017/texmf-dist/tex/latex/beamer/beamerbaselocalstructure.sty
INPUT /usr/local/texlive/2017/texmf-dist/tex/latex/tools/enumerate.sty
INPUT /usr/local/texlive/2017/texmf-dist/tex/latex/tools/enumerate.sty
INPUT /usr/local/texlive/2017/texmf-dist/tex/latex/beamer/beamerbasenavigation.sty
INPUT /usr/local/texlive/2017/texmf-dist/tex/latex/beamer/beamerbasenavigation.sty
INPUT /usr/local/texlive/2017/texmf-dist/tex/latex/beamer/beamerbasetheorems.sty
INPUT /usr/local/texlive/2017/texmf-dist/tex/latex/beamer/beamerbasetheorems.sty
INPUT /usr/local/texlive/2017/texmf-dist/tex/latex/amsmath/amsmath.sty
INPUT /usr/local/texlive/2017/texmf-dist/tex/latex/amsmath/amsmath.sty
INPUT /usr/local/texlive/2017/texmf-dist/tex/latex/amsmath/amstext.sty
INPUT /usr/local/texlive/2017/texmf-dist/tex/latex/amsmath/amstext.sty
INPUT /usr/local/texlive/2017/texmf-dist/tex/latex/amsmath/amsgen.sty
INPUT /usr/local/texlive/2017/texmf-dist/tex/latex/amsmath/amsgen.sty
INPUT /usr/local/texlive/2017/texmf-dist/tex/latex/amsmath/amsbsy.sty
INPUT /usr/local/texlive/2017/texmf-dist/tex/latex/amsmath/amsbsy.sty
INPUT /usr/local/texlive/2017/texmf-dist/tex/latex/amsmath/amsopn.sty
INPUT /usr/local/texlive/2017/texmf-dist/tex/latex/amsmath/amsopn.sty
INPUT /usr/local/texlive/2017/texmf-dist/tex/latex/amscls/amsthm.sty
INPUT /usr/local/texlive/2017/texmf-dist/tex/latex/amscls/amsthm.sty
INPUT /usr/local/texlive/2017/texmf-dist/tex/latex/beamer/beamerbasethemes.sty
INPUT /usr/local/texlive/2017/texmf-dist/tex/latex/beamer/beamerbasethemes.sty
INPUT /usr/local/texlive/2017/texmf-dist/fonts/tfm/public/cm/cmss10.tfm
INPUT /usr/local/texlive/2017/texmf-dist/tex/latex/beamer/themes/theme/beamerthemedefault.sty
INPUT /usr/local/texlive/2017/texmf-dist/tex/latex/beamer/themes/theme/beamerthemedefault.sty
INPUT /usr/local/texlive/2017/texmf-dist/tex/latex/beamer/themes/font/beamerfontthemedefault.sty
INPUT /usr/local/texlive/2017/texmf-dist/tex/latex/beamer/themes/font/beamerfontthemedefault.sty
INPUT /usr/local/texlive/2017/texmf-dist/tex/latex/beamer/themes/color/beamercolorthemedefault.sty
INPUT /usr/local/texlive/2017/texmf-dist/tex/latex/beamer/themes/color/beamercolorthemedefault.sty
INPUT /usr/local/texlive/2017/texmf-dist/tex/latex/beamer/themes/inner/beamerinnerthemedefault.sty
INPUT /usr/local/texlive/2017/texmf-dist/tex/latex/beamer/themes/inner/beamerinnerthemedefault.sty
INPUT /usr/local/texlive/2017/texmf-dist/tex/latex/beamer/art/beamericonbook.pdf
OUTPUT poster-surf.pdf
INPUT /usr/local/texlive/2017/texmf-dist/tex/latex/beamer/art/beamericonbook.pdf
INPUT /usr/local/texlive/2017/texmf-dist/tex/latex/beamer/art/beamericonbook.20.pdf
INPUT /usr/local/texlive/2017/texmf-dist/tex/latex/beamer/art/beamericonbook.20.pdf
INPUT /usr/local/texlive/2017/texmf-dist/tex/latex/beamer/art/beamericonarticle.pdf
INPUT /usr/local/texlive/2017/texmf-dist/tex/latex/beamer/art/beamericonarticle.pdf
INPUT /usr/local/texlive/2017/texmf-dist/tex/latex/beamer/art/beamericonarticle.20.pdf
INPUT /usr/local/texlive/2017/texmf-dist/tex/latex/beamer/art/beamericonarticle.20.pdf
INPUT /usr/local/texlive/2017/texmf-dist/tex/latex/beamer/art/beamericononline.pdf
INPUT /usr/local/texlive/2017/texmf-dist/tex/latex/beamer/art/beamericononline.pdf
INPUT /usr/local/texlive/2017/texmf-dist/tex/latex/beamer/art/beamericononline.20.pdf
INPUT /usr/local/texlive/2017/texmf-dist/tex/latex/beamer/art/beamericononline.20.pdf
INPUT /usr/local/texlive/2017/texmf-dist/tex/latex/beamer/themes/outer/beamerouterthemedefault.sty
INPUT /usr/local/texlive/2017/texmf-dist/tex/latex/beamer/themes/outer/beamerouterthemedefault.sty
INPUT /usr/local/texlive/2017/texmf-dist/tex/latex/oberdiek/grffile.sty
INPUT /usr/local/texlive/2017/texmf-dist/tex/latex/oberdiek/grffile.sty
INPUT beamerthemeI6pd2.sty
INPUT beamerthemeI6pd2.sty
INPUT tangocolors.sty
INPUT tangocolors.sty
INPUT /usr/local/texlive/2017/texmf-dist/tex/generic/babel/babel.sty
INPUT /usr/local/texlive/2017/texmf-dist/tex/generic/babel/babel.sty
INPUT /usr/local/texlive/2017/texmf-dist/tex/generic/babel-english/english.ldf
INPUT /usr/local/texlive/2017/texmf-dist/tex/generic/babel-english/english.ldf
INPUT /usr/local/texlive/2017/texmf-dist/tex/generic/babel/babel.def
INPUT /usr/local/texlive/2017/texmf-dist/tex/latex/base/inputenc.sty
INPUT /usr/local/texlive/2017/texmf-dist/tex/latex/base/inputenc.sty
INPUT /usr/local/texlive/2017/texmf-dist/tex/latex/base/latin1.def
INPUT /usr/local/texlive/2017/texmf-dist/tex/latex/base/latin1.def
INPUT /usr/local/texlive/2017/texmf-dist/tex/latex/base/latexsym.sty
INPUT /usr/local/texlive/2017/texmf-dist/tex/latex/base/latexsym.sty
INPUT /usr/local/texlive/2017/texmf-dist/tex/latex/biblatex/biblatex.sty
INPUT /usr/local/texlive/2017/texmf-dist/tex/latex/biblatex/biblatex.sty
INPUT /usr/local/texlive/2017/texmf-dist/tex/latex/logreq/logreq.sty
INPUT /usr/local/texlive/2017/texmf-dist/tex/latex/logreq/logreq.sty
INPUT /usr/local/texlive/2017/texmf-dist/tex/latex/logreq/logreq.def
INPUT /usr/local/texlive/2017/texmf-dist/tex/latex/logreq/logreq.def
INPUT /usr/local/texlive/2017/texmf-dist/tex/latex/base/ifthen.sty
INPUT /usr/local/texlive/2017/texmf-dist/tex/latex/base/ifthen.sty
INPUT /usr/local/texlive/2017/texmf-dist/tex/generic/xstring/xstring.sty
INPUT /usr/local/texlive/2017/texmf-dist/tex/generic/xstring/xstring.sty
INPUT /usr/local/texlive/2017/texmf-dist/tex/generic/xstring/xstring.tex
INPUT /usr/local/texlive/2017/texmf-dist/tex/latex/biblatex/blx-dm.def
INPUT /usr/local/texlive/2017/texmf-dist/tex/latex/biblatex/blx-dm.def
INPUT /usr/local/texlive/2017/texmf-dist/tex/latex/biblatex/blx-compat.def
INPUT /usr/local/texlive/2017/texmf-dist/tex/latex/biblatex/blx-compat.def
INPUT /usr/local/texlive/2017/texmf-dist/tex/latex/biblatex/biblatex.def
INPUT /usr/local/texlive/2017/texmf-dist/tex/latex/biblatex/biblatex.def
INPUT /usr/local/texlive/2017/texmf-dist/tex/latex/biblatex/blx-natbib.def
INPUT /usr/local/texlive/2017/texmf-dist/tex/latex/biblatex/blx-natbib.def
INPUT /usr/local/texlive/2017/texmf-dist/tex/latex/biblatex/bbx/numeric-comp.bbx
INPUT /usr/local/texlive/2017/texmf-dist/tex/latex/biblatex/bbx/numeric-comp.bbx
INPUT /usr/local/texlive/2017/texmf-dist/tex/latex/biblatex/bbx/numeric.bbx
INPUT /usr/local/texlive/2017/texmf-dist/tex/latex/biblatex/bbx/numeric.bbx
INPUT /usr/local/texlive/2017/texmf-dist/tex/latex/biblatex/bbx/standard.bbx
INPUT /usr/local/texlive/2017/texmf-dist/tex/latex/biblatex/bbx/standard.bbx
INPUT /usr/local/texlive/2017/texmf-dist/tex/latex/biblatex/cbx/numeric-comp.cbx
INPUT /usr/local/texlive/2017/texmf-dist/tex/latex/biblatex/cbx/numeric-comp.cbx
INPUT /usr/local/texlive/2017/texmf-dist/tex/latex/biblatex/biblatex.cfg
INPUT /usr/local/texlive/2017/texmf-dist/tex/latex/biblatex/biblatex.cfg
INPUT beamerposter.sty
INPUT beamerposter.sty
INPUT /usr/local/texlive/2017/texmf-dist/tex/latex/xkeyval/xkeyval.sty
INPUT /usr/local/texlive/2017/texmf-dist/tex/latex/xkeyval/xkeyval.sty
INPUT /usr/local/texlive/2017/texmf-dist/tex/generic/xkeyval/xkeyval.tex
INPUT /usr/local/texlive/2017/texmf-dist/tex/generic/xkeyval/xkvutils.tex
INPUT /usr/local/texlive/2017/texmf-dist/tex/latex/type1cm/type1cm.sty
INPUT /usr/local/texlive/2017/texmf-dist/tex/latex/type1cm/type1cm.sty
INPUT /usr/local/texlive/2017/texmf-dist/tex/latex/fp/fp.sty
INPUT /usr/local/texlive/2017/texmf-dist/tex/latex/fp/fp.sty
INPUT /usr/local/texlive/2017/texmf-dist/tex/latex/fp/defpattern.sty
INPUT /usr/local/texlive/2017/texmf-dist/tex/latex/fp/defpattern.sty
INPUT /usr/local/texlive/2017/texmf-dist/tex/latex/fp/fp-basic.sty
INPUT /usr/local/texlive/2017/texmf-dist/tex/latex/fp/fp-basic.sty
INPUT /usr/local/texlive/2017/texmf-dist/tex/latex/fp/fp-addons.sty
INPUT /usr/local/texlive/2017/texmf-dist/tex/latex/fp/fp-addons.sty
INPUT /usr/local/texlive/2017/texmf-dist/tex/latex/fp/fp-snap.sty
INPUT /usr/local/texlive/2017/texmf-dist/tex/latex/fp/fp-snap.sty
INPUT /usr/local/texlive/2017/texmf-dist/tex/latex/fp/fp-exp.sty
INPUT /usr/local/texlive/2017/texmf-dist/tex/latex/fp/fp-exp.sty
INPUT /usr/local/texlive/2017/texmf-dist/tex/latex/fp/fp-trigo.sty
INPUT /usr/local/texlive/2017/texmf-dist/tex/latex/fp/fp-trigo.sty
INPUT /usr/local/texlive/2017/texmf-dist/tex/latex/fp/fp-pas.sty
INPUT /usr/local/texlive/2017/texmf-dist/tex/latex/fp/fp-pas.sty
INPUT /usr/local/texlive/2017/texmf-dist/tex/latex/fp/fp-random.sty
INPUT /usr/local/texlive/2017/texmf-dist/tex/latex/fp/fp-random.sty
INPUT /usr/local/texlive/2017/texmf-dist/tex/latex/fp/fp-eqn.sty
INPUT /usr/local/texlive/2017/texmf-dist/tex/latex/fp/fp-eqn.sty
INPUT /usr/local/texlive/2017/texmf-dist/tex/latex/fp/fp-upn.sty
INPUT /usr/local/texlive/2017/texmf-dist/tex/latex/fp/fp-upn.sty
INPUT /usr/local/texlive/2017/texmf-dist/tex/latex/fp/fp-eval.sty
INPUT /usr/local/texlive/2017/texmf-dist/tex/latex/fp/fp-eval.sty
INPUT /usr/local/texlive/2017/texmf-dist/tex/latex/paralist/paralist.sty
INPUT /usr/local/texlive/2017/texmf-dist/tex/latex/paralist/paralist.sty
INPUT /usr/local/texlive/2017/texmf-dist/tex/latex/tools/array.sty
INPUT /usr/local/texlive/2017/texmf-dist/tex/latex/tools/array.sty
INPUT /usr/local/texlive/2017/texmf-dist/tex/latex/booktabs/booktabs.sty
INPUT /usr/local/texlive/2017/texmf-dist/tex/latex/booktabs/booktabs.sty
INPUT /usr/local/texlive/2017/texmf-dist/tex/latex/tools/tabularx.sty
INPUT /usr/local/texlive/2017/texmf-dist/tex/latex/tools/tabularx.sty
INPUT /usr/local/texlive/2017/texmf-dist/tex/latex/biblatex/lbx/english.lbx
INPUT /usr/local/texlive/2017/texmf-dist/tex/latex/biblatex/lbx/english.lbx
INPUT poster-surf.aux
INPUT poster-surf.aux
OUTPUT poster-surf.aux
INPUT /usr/local/texlive/2017/texmf-dist/fonts/tfm/public/cm/cmss17.tfm
INPUT /usr/local/texlive/2017/texmf-dist/tex/context/base/mkii/supp-pdf.mkii
INPUT /usr/local/texlive/2017/texmf-dist/tex/context/base/mkii/supp-pdf.mkii
INPUT /usr/local/texlive/2017/texmf-dist/tex/latex/oberdiek/epstopdf-base.sty
INPUT /usr/local/texlive/2017/texmf-dist/tex/latex/oberdiek/epstopdf-base.sty
INPUT /usr/local/texlive/2017/texmf-dist/tex/latex/oberdiek/grfext.sty
INPUT /usr/local/texlive/2017/texmf-dist/tex/latex/oberdiek/grfext.sty
INPUT /usr/local/texlive/2017/texmf-dist/tex/latex/latexconfig/epstopdf-sys.cfg
INPUT /usr/local/texlive/2017/texmf-dist/tex/latex/latexconfig/epstopdf-sys.cfg
INPUT /usr/local/texlive/2017/texmf-dist/tex/latex/hyperref/nameref.sty
INPUT /usr/local/texlive/2017/texmf-dist/tex/latex/hyperref/nameref.sty
INPUT /usr/local/texlive/2017/texmf-dist/tex/generic/oberdiek/gettitlestring.sty
INPUT /usr/local/texlive/2017/texmf-dist/tex/generic/oberdiek/gettitlestring.sty
INPUT poster-surf.out
INPUT poster-surf.out
INPUT poster-surf.out
INPUT poster-surf.out
INPUT ./poster-surf.out
INPUT ./poster-surf.out
OUTPUT poster-surf.out
INPUT /usr/local/texlive/2017/texmf-dist/tex/latex/beamer/translator/dicts/translator-basic-dictionary/translator-basic-dictionary-English.dict
INPUT /usr/local/texlive/2017/texmf-dist/tex/latex/beamer/translator/dicts/translator-basic-dictionary/translator-basic-dictionary-English.dict
INPUT /usr/local/texlive/2017/texmf-dist/tex/latex/beamer/translator/dicts/translator-bibliography-dictionary/translator-bibliography-dictionary-English.dict
INPUT /usr/local/texlive/2017/texmf-dist/tex/latex/beamer/translator/dicts/translator-bibliography-dictionary/translator-bibliography-dictionary-English.dict
INPUT /usr/local/texlive/2017/texmf-dist/tex/latex/beamer/translator/dicts/translator-environment-dictionary/translator-environment-dictionary-English.dict
INPUT /usr/local/texlive/2017/texmf-dist/tex/latex/beamer/translator/dicts/translator-environment-dictionary/translator-environment-dictionary-English.dict
INPUT /usr/local/texlive/2017/texmf-dist/tex/latex/beamer/translator/dicts/translator-months-dictionary/translator-months-dictionary-English.dict
INPUT /usr/local/texlive/2017/texmf-dist/tex/latex/beamer/translator/dicts/translator-months-dictionary/translator-months-dictionary-English.dict
INPUT /usr/local/texlive/2017/texmf-dist/tex/latex/beamer/translator/dicts/translator-numbers-dictionary/translator-numbers-dictionary-English.dict
INPUT /usr/local/texlive/2017/texmf-dist/tex/latex/beamer/translator/dicts/translator-numbers-dictionary/translator-numbers-dictionary-English.dict
INPUT /usr/local/texlive/2017/texmf-dist/tex/latex/beamer/translator/dicts/translator-theorem-dictionary/translator-theorem-dictionary-English.dict
INPUT /usr/local/texlive/2017/texmf-dist/tex/latex/beamer/translator/dicts/translator-theorem-dictionary/translator-theorem-dictionary-English.dict
OUTPUT poster-surf.bcf
INPUT poster-surf.bbl
INPUT poster-surf.bbl
INPUT poster-surf.bbl
INPUT poster-surf.nav
INPUT poster-surf.nav
INPUT /usr/local/texlive/2017/texmf-dist/fonts/tfm/public/cm/cmss17.tfm
INPUT /usr/local/texlive/2017/texmf-dist/fonts/tfm/public/cm/cmss17.tfm
INPUT /usr/local/texlive/2017/texmf-dist/fonts/tfm/public/cm/cmtt12.tfm
INPUT /usr/local/texlive/2017/texmf-dist/fonts/tfm/public/cm/cmssbx10.tfm
INPUT /usr/local/texlive/2017/texmf-dist/fonts/tfm/public/cm/cmssbx10.tfm
INPUT /usr/local/texlive/2017/texmf-dist/fonts/tfm/public/cm/cmssbx10.tfm
INPUT ./figures/UniLogo.png
INPUT ./figures/UniLogo.png
INPUT ./figures/UniLogo.png
INPUT /usr/local/texlive/2017/texmf-dist/fonts/tfm/public/cm/cmssbx10.tfm
INPUT ./figures/pythonDistance/CoordMapContour.png
INPUT ./figures/pythonDistance/CoordMapContour.png
INPUT ./figures/pythonDistance/CoordMapContour.png
INPUT /usr/local/texlive/2017/texmf-dist/fonts/tfm/public/cm/cmss17.tfm
INPUT /usr/local/texlive/2017/texmf-dist/fonts/tfm/public/cm/cmssbx10.tfm
INPUT /usr/local/texlive/2017/texmf-dist/fonts/tfm/public/cm/cmssbx10.tfm
INPUT /usr/local/texlive/2017/texmf-dist/fonts/tfm/public/cm/cmmib10.tfm
INPUT /usr/local/texlive/2017/texmf-dist/fonts/tfm/public/cm/cmmib10.tfm
INPUT /usr/local/texlive/2017/texmf-dist/fonts/tfm/public/cm/cmmib10.tfm
INPUT /usr/local/texlive/2017/texmf-dist/fonts/tfm/public/cm/cmbsy10.tfm
INPUT /usr/local/texlive/2017/texmf-dist/fonts/tfm/public/cm/cmbsy10.tfm
INPUT /usr/local/texlive/2017/texmf-dist/fonts/tfm/public/cm/cmbsy10.tfm
INPUT /usr/local/texlive/2017/texmf-dist/fonts/tfm/public/cm/cmex10.tfm
INPUT /usr/local/texlive/2017/texmf-dist/fonts/tfm/public/cm/cmex10.tfm
INPUT /usr/local/texlive/2017/texmf-dist/fonts/tfm/public/cm/cmex10.tfm
INPUT /usr/local/texlive/2017/texmf-dist/fonts/tfm/public/amsfonts/symbols/msam10.tfm
INPUT /usr/local/texlive/2017/texmf-dist/fonts/tfm/public/amsfonts/symbols/msam10.tfm
INPUT /usr/local/texlive/2017/texmf-dist/fonts/tfm/public/amsfonts/symbols/msam10.tfm
INPUT /usr/local/texlive/2017/texmf-dist/fonts/tfm/public/amsfonts/symbols/msbm10.tfm
INPUT /usr/local/texlive/2017/texmf-dist/fonts/tfm/public/amsfonts/symbols/msbm10.tfm
INPUT /usr/local/texlive/2017/texmf-dist/fonts/tfm/public/amsfonts/symbols/msbm10.tfm
INPUT /usr/local/texlive/2017/texmf-dist/fonts/tfm/public/latex-fonts/lasyb10.tfm
INPUT /usr/local/texlive/2017/texmf-dist/fonts/tfm/public/latex-fonts/lasyb10.tfm
INPUT /usr/local/texlive/2017/texmf-dist/fonts/tfm/public/latex-fonts/lasyb10.tfm
INPUT /usr/local/texlive/2017/texmf-dist/tex/latex/sansmathaccent/ot1mathkerncmss.fd
INPUT /usr/local/texlive/2017/texmf-dist/tex/latex/sansmathaccent/ot1mathkerncmss.fd
INPUT /usr/local/texlive/2017/texmf-dist/fonts/tfm/public/sansmathaccent/mathkerncmssxi17.tfm
INPUT /usr/local/texlive/2017/texmf-dist/fonts/tfm/public/sansmathaccent/mathkerncmssxi17.tfm
INPUT /usr/local/texlive/2017/texmf-dist/fonts/tfm/public/sansmathaccent/mathkerncmssxi17.tfm
INPUT ./figures/MuTeDetector.png
INPUT ./figures/MuTeDetector.png
INPUT ./figures/MuTeDetector.png
INPUT ./figures/VolcanoDiagram.pdf
INPUT ./figures/VolcanoDiagram.pdf
INPUT ./figures/VolcanoDiagram.pdf
INPUT ./figures/VolcanoDiagram.pdf
INPUT ./figures/pythonDistance/3D_rays.png
INPUT ./figures/pythonDistance/3D_rays.png
INPUT ./figures/pythonDistance/3D_rays.png
INPUT /usr/local/texlive/2017/texmf-dist/fonts/tfm/public/cm/cmr17.tfm
INPUT /usr/local/texlive/2017/texmf-dist/fonts/tfm/public/cm/cmss17.tfm
INPUT /usr/local/texlive/2017/texmf-dist/fonts/tfm/public/cm/cmr17.tfm
INPUT /usr/local/texlive/2017/texmf-dist/fonts/tfm/public/cm/cmss17.tfm
INPUT /usr/local/texlive/2017/texmf-dist/fonts/tfm/public/cm/cmr17.tfm
INPUT ./figures/Results/RandomPhi/AngleVDistance_84Day.pdf
INPUT ./figures/Results/RandomPhi/AngleVDistance_84Day.pdf
INPUT ./figures/Results/RandomPhi/AngleVDistance_84Day.pdf
INPUT ./figures/Results/RandomPhi/AngleVDistance_84Day.pdf
INPUT /usr/local/texlive/2017/texmf-dist/fonts/tfm/public/cm/cmssbx10.tfm
INPUT /usr/local/texlive/2017/texmf-dist/fonts/tfm/public/cm/cmssbx10.tfm
INPUT /usr/local/texlive/2017/texmf-dist/fonts/tfm/public/cm/cmssbx10.tfm
INPUT /usr/local/texlive/2017/texmf-dist/fonts/tfm/public/cm/cmmib10.tfm
INPUT /usr/local/texlive/2017/texmf-dist/fonts/tfm/public/cm/cmmib10.tfm
INPUT /usr/local/texlive/2017/texmf-dist/fonts/tfm/public/cm/cmmib10.tfm
INPUT /usr/local/texlive/2017/texmf-dist/fonts/tfm/public/cm/cmbsy10.tfm
INPUT /usr/local/texlive/2017/texmf-dist/fonts/tfm/public/cm/cmbsy10.tfm
INPUT /usr/local/texlive/2017/texmf-dist/fonts/tfm/public/cm/cmbsy10.tfm
INPUT /usr/local/texlive/2017/texmf-dist/fonts/tfm/public/cm/cmex10.tfm
INPUT /usr/local/texlive/2017/texmf-dist/fonts/tfm/public/cm/cmex10.tfm
INPUT /usr/local/texlive/2017/texmf-dist/fonts/tfm/public/cm/cmex10.tfm
INPUT /usr/local/texlive/2017/texmf-dist/fonts/tfm/public/amsfonts/symbols/msam10.tfm
INPUT /usr/local/texlive/2017/texmf-dist/fonts/tfm/public/amsfonts/symbols/msam10.tfm
INPUT /usr/local/texlive/2017/texmf-dist/fonts/tfm/public/amsfonts/symbols/msam10.tfm
INPUT /usr/local/texlive/2017/texmf-dist/fonts/tfm/public/amsfonts/symbols/msbm10.tfm
INPUT /usr/local/texlive/2017/texmf-dist/fonts/tfm/public/amsfonts/symbols/msbm10.tfm
INPUT /usr/local/texlive/2017/texmf-dist/fonts/tfm/public/amsfonts/symbols/msbm10.tfm
INPUT /usr/local/texlive/2017/texmf-dist/fonts/tfm/public/latex-fonts/lasyb10.tfm
INPUT /usr/local/texlive/2017/texmf-dist/fonts/tfm/public/latex-fonts/lasyb10.tfm
INPUT /usr/local/texlive/2017/texmf-dist/fonts/tfm/public/latex-fonts/lasyb10.tfm
INPUT /usr/local/texlive/2017/texmf-dist/fonts/tfm/public/sansmathaccent/mathkerncmssxi17.tfm
INPUT /usr/local/texlive/2017/texmf-dist/fonts/tfm/public/sansmathaccent/mathkerncmssxi17.tfm
INPUT /usr/local/texlive/2017/texmf-dist/fonts/tfm/public/sansmathaccent/mathkerncmssxi12.tfm
INPUT ./figures/Results/LowDensity/NumberOfMuons_perAngle_OneDeg_logColorBar_100Days.pdf
INPUT ./figures/Results/LowDensity/NumberOfMuons_perAngle_OneDeg_logColorBar_100Days.pdf
INPUT ./figures/Results/LowDensity/NumberOfMuons_perAngle_OneDeg_logColorBar_100Days.pdf
INPUT ./figures/Results/LowDensity/NumberOfMuons_perAngle_OneDeg_logColorBar_100Days.pdf
INPUT ./figures/Results/AlejandraComp/AlejandraMUSICFlux_Ratio_goodCMap.pdf
INPUT ./figures/Results/AlejandraComp/AlejandraMUSICFlux_Ratio_goodCMap.pdf
INPUT ./figures/Results/AlejandraComp/AlejandraMUSICFlux_Ratio_goodCMap.pdf
INPUT ./figures/Results/AlejandraComp/AlejandraMUSICFlux_Ratio_goodCMap.pdf
INPUT /usr/local/texlive/2017/texmf-dist/fonts/tfm/public/cm/cmr17.tfm
INPUT /usr/local/texlive/2017/texmf-dist/fonts/tfm/public/cm/cmss17.tfm
INPUT /usr/local/texlive/2017/texmf-dist/fonts/tfm/public/cm/cmr17.tfm
INPUT /usr/local/texlive/2017/texmf-dist/fonts/tfm/public/cm/cmss12.tfm
INPUT /usr/local/texlive/2017/texmf-dist/fonts/tfm/public/cm/cmr12.tfm
INPUT ./figures/Results/LowDensity/NumberOfMuons_perAngle_OneDeg_NOLOGColorBar_100Days_HighNumberLimit_1000.pdf
INPUT ./figures/Results/LowDensity/NumberOfMuons_perAngle_OneDeg_NOLOGColorBar_100Days_HighNumberLimit_1000.pdf
INPUT ./figures/Results/LowDensity/NumberOfMuons_perAngle_OneDeg_NOLOGColorBar_100Days_HighNumberLimit_1000.pdf
INPUT ./figures/Results/LowDensity/NumberOfMuons_perAngle_OneDeg_NOLOGColorBar_100Days_HighNumberLimit_1000.pdf
INPUT /usr/local/texlive/2017/texmf-dist/fonts/tfm/public/cm/cmss17.tfm
INPUT /usr/local/texlive/2017/texmf-dist/fonts/tfm/public/cm/cmssi17.tfm
INPUT /usr/local/texlive/2017/texmf-dist/fonts/tfm/public/cm/cmcsc10.tfm
INPUT /usr/local/texlive/2017/texmf-dist/fonts/tfm/public/cm/cmtt12.tfm
INPUT /usr/local/texlive/2017/texmf-dist/fonts/tfm/public/cm/cmssbx10.tfm
INPUT /usr/local/texlive/2017/texmf-dist/fonts/tfm/public/cm/cmssbx10.tfm
INPUT /usr/local/texlive/2017/texmf-dist/fonts/tfm/public/cm/cmssbx10.tfm
INPUT /usr/local/texlive/2017/texmf-dist/fonts/tfm/public/cm/cmmib10.tfm
INPUT /usr/local/texlive/2017/texmf-dist/fonts/tfm/public/cm/cmmib10.tfm
INPUT /usr/local/texlive/2017/texmf-dist/fonts/tfm/public/cm/cmmib10.tfm
INPUT /usr/local/texlive/2017/texmf-dist/fonts/tfm/public/cm/cmbsy10.tfm
INPUT /usr/local/texlive/2017/texmf-dist/fonts/tfm/public/cm/cmbsy10.tfm
INPUT /usr/local/texlive/2017/texmf-dist/fonts/tfm/public/cm/cmbsy10.tfm
INPUT /usr/local/texlive/2017/texmf-dist/fonts/tfm/public/cm/cmex10.tfm
INPUT /usr/local/texlive/2017/texmf-dist/fonts/tfm/public/cm/cmex10.tfm
INPUT /usr/local/texlive/2017/texmf-dist/fonts/tfm/public/cm/cmex10.tfm
INPUT /usr/local/texlive/2017/texmf-dist/fonts/tfm/public/amsfonts/symbols/msam10.tfm
INPUT /usr/local/texlive/2017/texmf-dist/fonts/tfm/public/amsfonts/symbols/msam10.tfm
INPUT /usr/local/texlive/2017/texmf-dist/fonts/tfm/public/amsfonts/symbols/msam10.tfm
INPUT /usr/local/texlive/2017/texmf-dist/fonts/tfm/public/amsfonts/symbols/msbm10.tfm
INPUT /usr/local/texlive/2017/texmf-dist/fonts/tfm/public/amsfonts/symbols/msbm10.tfm
INPUT /usr/local/texlive/2017/texmf-dist/fonts/tfm/public/amsfonts/symbols/msbm10.tfm
INPUT /usr/local/texlive/2017/texmf-dist/fonts/tfm/public/latex-fonts/lasyb10.tfm
INPUT /usr/local/texlive/2017/texmf-dist/fonts/tfm/public/latex-fonts/lasyb10.tfm
INPUT /usr/local/texlive/2017/texmf-dist/fonts/tfm/public/latex-fonts/lasyb10.tfm
INPUT /usr/local/texlive/2017/texmf-dist/fonts/tfm/public/sansmathaccent/mathkerncmssxi17.tfm
INPUT /usr/local/texlive/2017/texmf-dist/fonts/tfm/public/sansmathaccent/mathkerncmssxi12.tfm
INPUT /usr/local/texlive/2017/texmf-dist/fonts/tfm/public/sansmathaccent/mathkerncmssxi10.tfm
INPUT /usr/local/texlive/2017/texmf-dist/fonts/tfm/public/cm/cmss8.tfm
INPUT ./figures/UniLogo.png
INPUT ./figures/UniLogo.png
INPUT /usr/local/texlive/2017/texmf-var/fonts/map/pdftex/updmap/pdftex.map
INPUT /usr/local/texlive/2017/texmf-dist/fonts/vf/public/sansmathaccent/mathkerncmssxi17.vf
INPUT /usr/local/texlive/2017/texmf-dist/fonts/tfm/jknappen/ec/ecso1728.tfm
INPUT /usr/local/texlive/2017/texmf-dist/fonts/vf/public/sansmathaccent/mathkerncmssxi17.vf
INPUT /usr/local/texlive/2017/texmf-dist/fonts/tfm/jknappen/ec/ecso1728.tfm
OUTPUT poster-surf.nav
OUTPUT poster-surf.toc
OUTPUT poster-surf.snm
INPUT poster-surf.aux
INPUT ./poster-surf.out
INPUT ./poster-surf.out
INPUT poster-surf.run.xml
OUTPUT poster-surf.run.xml
INPUT /usr/local/texlive/2017/texmf-dist/fonts/enc/dvips/cm-super/cm-super-t1.enc
INPUT /usr/local/texlive/2017/texmf-dist/fonts/type1/public/amsfonts/cm/cmbsy10.pfb
INPUT /usr/local/texlive/2017/texmf-dist/fonts/type1/public/amsfonts/cm/cmcsc10.pfb
INPUT /usr/local/texlive/2017/texmf-dist/fonts/type1/public/amsfonts/cm/cmmi10.pfb
INPUT /usr/local/texlive/2017/texmf-dist/fonts/type1/public/amsfonts/cm/cmmib10.pfb
INPUT /usr/local/texlive/2017/texmf-dist/fonts/type1/public/amsfonts/cm/cmr10.pfb
INPUT /usr/local/texlive/2017/texmf-dist/fonts/type1/public/amsfonts/cm/cmr17.pfb
INPUT /usr/local/texlive/2017/texmf-dist/fonts/type1/public/amsfonts/cm/cmss17.pfb
INPUT /usr/local/texlive/2017/texmf-dist/fonts/type1/public/amsfonts/cm/cmssbx10.pfb
INPUT /usr/local/texlive/2017/texmf-dist/fonts/type1/public/amsfonts/cm/cmssi17.pfb
INPUT /usr/local/texlive/2017/texmf-dist/fonts/type1/public/amsfonts/cm/cmtt12.pfb
INPUT /usr/local/texlive/2017/texmf-dist/fonts/type1/public/amsfonts/symbols/msam10.pfb
INPUT /usr/local/texlive/2017/texmf-dist/fonts/type1/public/cm-super/sfso1728.pfb
